\begin{tikzpicture}
  [
    caption =
    {%
      O vetor $\vector{v}$ representa o ``deslocamento necessário''
      pra sair do ponto $A$ e ir ao ponto $B$.
      Ou seja,
      $B = A + \vector{v}$.
    }
  ]

  \node[dot, name=A, label=$A$] at (0,0) {};
  \node[dot, name=B, label=$B$] at (5,2) {};

  \draw[vector]
    (A) -- node[above](v){$\vector{v}$} (B);

  \node[ellipse callout, callout absolute pointer={($(v.south) + (7pt, -2pt)$)}, draw] at (4,0) {Um vetor!};
\end{tikzpicture}
