\begin{tikzpicture}
  [
    caption =
    {%
      Podemos usar eixos não ortogonais.
      Mas qual seria a coordenada do ponto $A$?
    }
  ]

  \coordinate (O) at (0,0);
  \coordinate (x) at (1,0);
  \coordinate (y) at (.5,1);

  \node[dot, name=A, label=$A$] at ($(O) + 2*(x) + 2*(y)$) {};

  \pgfoonew\axis=new axis(origin=O, e1=x, e2=y, min={0,0}, max={4,3})
  \axis.tick coordinates()
  \axis.draw()
\end{tikzpicture}
