\begin{tikzpicture}
  [
    caption =
    {%
    }
  ]

  \draw[name path=circle] (2,1) node [dot, name=center, label={above left:$A$}]
    circle[radius=2];

  \path ($(center) + (30:2)$) node[dot, name=point in circle, label={above right:$A + v$}];
  \draw[vector] (center) -- node [above] {$v$} (point in circle);


  \pgfoonew\axes=new axes(min={-1,-1}, max={5,3})
  \axes.draw grid()
  \axes.draw()
\end{tikzpicture}
