\begin{tikzpicture}
  [
    caption =
    {%
      Se restringirmos o domínio de definição de
      $r(t) = A + t(B - A)$
      ao intervalo $[0,1]$,
      temos uma parametrização para o segmento de reta
      que liga os pontos $A$ e $B$.
    }
  ]


  \path (-1,2) node[dot, name=A, label=$A$];
  \path (1,1) node[dot, name=B, label=$B$];

  \draw[help lines]
    ($(A)!-1.5cm!(B)$) -- ($(B)!-3.2cm!(A)$);
  \draw[help lines, decorate, decoration=zigzag]
    ($(A)!-1.5cm!(B)$) -- (A.center)
    ($(B)!-3.2cm!(A)$) -- (B.center);
  \draw[thick]
    (A) -- (B);


  \pgfoonew\axes=new axes(origin=O, min={-2,0}, max={4,3})
  \axes.draw grid()
  \axes.draw()
\end{tikzpicture}
