\begin{tikzpicture}
  [
    caption =
    {%
      A representação gráfica de qualquer transposição
      $\sigma = \transposition{i}{j}$
      mostra que
      $\sign(\sigma) = -1$,
      pois os cruzamentos aparecemaos pares,
      com excessão de um.
    }
  ]

  \def\drawnodes
  {

    \node[dot] (B1) at (1,2) {};
    \node[dot] (B2) at (2,2) {};
    \node[dot] (B3) at (3,2) {};
    \node[dot] (B4) at (4,2) {};
    \node[dot] (B5) at (5,2) {};

    \node[dot] (C1) at (1,4) {};
    \node[dot] (C2) at (2,4) {};
    \node[dot] (C3) at (3,4) {};
    \node[dot] (C4) at (4,4) {};
    \node[dot] (C5) at (5,4) {};

    \node (D1) at (1,6) {1};
    \node (D2) at (2,6) {2};
    \node (D3) at (3,6) {3};
    \node (D4) at (4,6) {4};
    \node (D5) at (5,6) {5};
  }


  \begin{scope}[yscale=-1]
    \node[dot] (A1) at (1,-1) {};
    \node[dot] (A2) at (2,-1) {};
    \node[dot] (x1) at (3,-1) {};
    \node[dot] (A3) at (4,-1) {};
    \node[dot] (A4) at (5,-1) {};
    \node[dot] (A5) at (6,-1) {};
    %
    \node[dot] (A6) at (9,-1) {};
    \node[dot] (x2) at (10,-1) {};
    \node[dot] (A7) at (11,-1) {};
    \node[dot] (A8) at (12,-1) {};

    \foreach \n in {1,...,8}{
      \node[dot] (B\n) at (A\n |- 0,1) {};
      \draw (A\n) -- (B\n);
    }

    \node at ($(A5)!.5!(A6)$) {$\dotsb$};
    \node at ($(B5)!.5!(B6)$) {$\dotsb$};

    \node[dot] (y1) at (x1 |- 0,1) {};
    \node[dot] (y2) at (x2 |- 0,1) {};
    \draw (x1) .. controls +(0,2) and +(0,-3) .. (y2);
    \draw (x2) .. controls +(0,3) and +(0,-2) .. (y1);
  \end{scope}
\end{tikzpicture}
