\begin{tikzpicture}
  [
    caption =
    {%
      A função $f$,
      representada esquematicamente na figura,
      \textbf{não} é injetiva.
    }
  ]

  \node at (0,0) {\includegraphics{00/02/figs/not_injective.jpg}};
\end{tikzpicture}
