\begin{tikzpicture}
  \draw[help lines, step=.5, opacity=0.2] (0,0) grid (2,2);

  \scoped[scale=0.5]
  \draw[very thick, blue]
    (1,0)
    -- (1,2)
    -- (0,2)
    -- (1,3)
    -- (3,3)
    -- (4,2)
    -- (3,2)
    -- (3,0)
    -- cycle;

  \path (0,0) node[dot=blue];
\end{tikzpicture}
