\begin{scope}[ultra thick,fill opacity=0.6]
  % Kite
  \draw[fill=green!30]
    (0.5,3)
    -- (0.5,3.5)
    -- (1,4)
    -- (1,3.5)
    -- cycle;
  \draw
    (0.5,3)
    .. controls +(-0.25,-0.5) and +(0.5,0.75) ..
    (0.25,2);

  % House
  \draw[fill=pink!10]
    (0.5,0)
    |- (0,1)
    -- (1,2)
    -- (2,2)
    -- (3,1)
    -| (2.5,0);

  % Door and window.
  \draw[fill=white]
    (1.5,0.5) rectangle (2,1)
    (1.5,0.75) -- (2,0.75)
    (1.75,0.5) -- (1.75,1)
    (0.75,0)
    -- (0.75,0.75)
    -- (1.25,0.75)
    -- (1.25,0);

  % Man
  \draw
    (4.25,0)
    -- (4.5,0.3)
    -- (4.75,0)
    (4.5,0.3)
    -- (4.5,0.8)
    (4.25,0.7)
    -- (4.5,0.6)
    -- (4.75,0.7)
    (4.5,0.9) circle[radius=0.1]
    (0.75,3.5)
    .. controls +(0,-0.5) and +(-2,0) ..
    (4.25,0.7);
\end{scope}

\begin{scope}[semithick,fill opacity=0.6]
  \pgfoonew\axis=new axis(min={0,0}, max={5,4})
  \axis.draw grid()
  \axis.draw()
\end{scope}
