\begin{tikzpicture}
  [
    caption =
    {%
      A reta $x = \c$ não é gráfico de uma função $f(x)$,
      e não pode ser representada na forma $y = ax + b$.
    }
  ]

  \tikzmath{real \c; \c = 2;}
  \tikzmath{real \ymin, \ymax; \ymin = -1.5; \ymax = 3.5;}

  \draw[thick]
    (\c, \ymin)
    -- node[right, pos=.6] {$x = \c$}
    (\c, \ymax);


  \pgfoonew\axis=new axis(min={0,-1}, max={5,3})
  \axis.draw grid()
  \axis.draw()
\end{tikzpicture}
