\begin{tikzpicture}
  [
    caption =
    {%
      Um ponto!
      O que é um ponto?
      Deixa pra lá\ldots{} :-)
    }
  ]

  \path (0,0) node [dot, name=a dot];

  \node[ellipse callout, callout absolute pointer={(a dot.north east)}, draw] at (2,1) {Um ponto!};
\end{tikzpicture}
