\begin{tikzpicture}
  [
    caption =
    {%
      Suponha que $v$ representa o ``deslocamento necessário''
      para ir de $A$ a $B$,
      e que $\vector{w}$ representa o ``deslocamento'' de $B$ até $C$.
      Então,
      denotamos por $\vector{v} + \vector{w}$ o ``deslocamento necessáiro''
      para ir de $A$ até $C$.
    }
  ]

  \path (0,0) node[dot, name=A, label=$A$];
  \path (2,2) node[dot, name=B, label=$B$];
  \path (5,1) node[dot, name=C, label=$C$];

  \draw[vector] (A) -- node[above]{$\vector{v}$} (B);
  \draw[vector] (B) -- node[above]{$\vector{w}$} (C);
  \draw[vector] (A) -- node[below]{$\vector{v} + \vector{w}$} (C);
\end{tikzpicture}
